Mini Project 02 – STA 9750 Submission Material
…
#step 6. Find the top CBSA for each year by total employment
TOP_DS_BY_YEAR <- DATA_SCIENCE_NAME |> 
  group_by(YEAR, NAME) |> 
  summarise(total_jobs = sum(EMPLOYMENT, na.rm = TRUE)) |> 
  arrange(YEAR, desc(total_jobs)) |> 
  slice_head(n = 1)

`summarise()` has grouped output by 'YEAR'. You can override using the
`.groups` argument.

Code

TOP_DS_BY_YEAR |> print(n = 10)

# A tibble: 14 × 3
# Groups:   YEAR [14]
    YEAR NAME                                          total_jobs
   <dbl> <chr>                                              <dbl>
 1  2009 New York-Newark-Jersey City, NY-NJ Metro Area      16349
 2  2010 Dallas-Fort Worth-Arlington, TX Metro Area         13238
 3  2011 Dallas-Fort Worth-Arlington, TX Metro Area         13283
 4  2012 New York-Newark-Jersey City, NY-NJ Metro Area      14423
 5  2013 New York-Newark-Jersey City, NY-NJ Metro Area      14251
 6  2014 New York-Newark-Jersey City, NY-NJ Metro Area      17828
 7  2015 New York-Newark-Jersey City, NY-NJ Metro Area      18922
 8  2016 San Francisco-Oakland-Berkeley, CA Metro Area      16369
 9  2017 San Francisco-Oakland-Berkeley, CA Metro Area      18089
10  2018 San Francisco-Oakland-Berkeley, CA Metro Area      22379
# ℹ 4 more rows
…
