Mini-Project 04 - Just the Fact(-Check)s, Ma’am! – STA 9750 Submission Material
…
Warning: There were 2 warnings in `mutate()`.
The first warning was:
ℹ In argument: `date = ym(paste(Year, month))`.
Caused by warning:
!  12 failed to parse.
ℹ Run `dplyr::last_dplyr_warnings()` to see the 1 remaining warning.

Code

df

# A tibble: 559 × 4
   Year  month level date      
   <chr> <chr> <dbl> <date>    
 1 1979  Jan   88808 1979-01-01
 2 1979  Feb   89055 1979-02-01
 3 1979  Mar   89479 1979-03-01
 4 1979  Apr   89417 1979-04-01
 5 1979  May   89789 1979-05-01
 6 1979  Jun   90108 1979-06-01
 7 1979  Jul   90217 1979-07-01
 8 1979  Aug   90300 1979-08-01
 9 1979  Sep   90327 1979-09-01
10 1979  Oct   90481 1979-10-01
# ℹ 549 more rows
…
  return(tbl_clean)
}

# 3. Extract all years
years <- 1979:2025

revision_df <- map_df(years, extract_revision_year)

revision_df

# A tibble: 564 × 4
   date       original final revision
   <date>        <dbl> <dbl>    <dbl>
 1 1979-01-01      325   243       82
 2 1979-02-01      301   294        7
 3 1979-03-01      324   445     -121
 4 1979-04-01       72   -15       87
 5 1979-05-01      171   291     -120
 6 1979-06-01       97   225     -128
 7 1979-07-01       44    87      -43
 8 1979-08-01        2    49      -47
 9 1979-09-01      135    41       94
10 1979-10-01      306   179      127
# ℹ 554 more rows
…
